[
   {
      "id" : 1,
      "name" : "Uncharted waters are now clear",
      "version" : "v1.0.0",
      "date" : "Jun 15, 2020",
      "items" : [
          { "name": "This is game changing first release!" }
      ]
   }
]
